{

	"theme_name": "themeName",

	"acf_options": {
		"init": true,
		"page_title": "Theme Options",
		"menu_title": "Theme Options",
		"menu_slug": "theme-options",
		"subpages": {
			"general": {
				"page_title": "Theme General Settings",
				"menu_title": "General"
			},
			"header": {
				"page_title": "Theme Header Settings",
				"menu_title": "Header"
			},
			"footer": {
				"page_title": "Theme Footer Settings",
				"menu_title": "Footer"
			}
		}
	},

	"enqueue_styles": {
		"slick": "css/vendor/slick.css",
		"theme-styles": "css/style.css",
		"style": "style.css"
	},

	"enqueue_scripts": {
		"slick": "js/vendor/slick.min.js",
        "isotope" : "js/vendor/isotope.pkgd.min.js",
		"script": "js/script-main.js"
	},

	"enqueue_built_in_scripts": [

	],

	"register_nav_menus": {
		"primary": "Main Navigation",
		"single": "Single Navigation",
		"footer": "Footer Navigation"
	},

	"theme_widgets_init": {
		"Primary": {
			"name": "Primary Widget Area",
			"id": "primary_widget_area"
		}
	},

	"enable_shortcodes_fix": true,

	"enable_thumbnails": true,

	"thumbnails": [
		[
			"thumbnail-name-1",
			800,
			600,
			["left", "top"]
		],
		[
			"thumbnail-name-2",
			400,
			300,
			true
		],
        [
            "team_img",
            409,
            368,
            true
        ], 
        [
            "tabs_img",
            840,
            675,
            true
        ],
        [
            "project-slider",
            1440,
            1040,
            true
        ]
	]
}

/* ================================================================ */
/* ========================= EXAMPLE CODE ========================= */
/* ================================================================ */

/*
{

	"theme_name" : "themeName",

	"acf_options": {
		"init": true,
		"page_title": "Theme Options",
		"menu_title": "Theme Options",
		"menu_slug": "theme-options",
		"subpages": {
			"subpage_1": {
				"page_title": "Theme General Settings",
				"menu_title": "General"
			},
			"subpage_2": {
				"page_title": "Theme Header Settings",
				"menu_title": "Header"
			},
			"subpage_3": {
				"page_title": "Theme Footer Settings",
				"menu_title": "Footer"
			}
		}
	},

	"register_nav_menus" : {
		"primary" : "Main Navigation"
	},

	"enqueue_styles": {
		"style": {
			"src" : "style.css",
			"deps": [ ],
			"ver": "1.0",
			"media": "all"
		},

		"simple": "css/simple.css"
	},

	"enqueue_scripts": {
		"script": {
			"src" : "js/script.js",
			"deps": [ ],
			"ver": "1.0",
			"in_footer": true
		},

		"simple": "js/simple.js"
	},

	"enqueue_built_in_scripts": [
		"jquery-ui-core", "iris", "underscore"
	],

	"theme_widgets_init" : {
		"Primary" : {
			"name" : "Primary Widget Area",
			"id" : "primary_widget_area",
			"before_widget" : "<div id='%1$s' class='widget %2$s'>",
			"after_widget" : "</div>",
			"before_title" : "<h3 class='widget-title'>",
			"after_title" : "</h3>"
		}
	},

	"enable_thumbnails" : true,

	"thumbnails": [
		[
			"thumbnail-name-1",
			800,
			600,
			["left", "top"]
		],
		[
			"thumbnail-name-2",
			400,
			300,
			true
		]
	]

}
*/
